1,6400,1,0
4,7205,1,0
3,8760,1,0
1,9590,1,0
1,10400,1,0
4,11200,1,0
4,12020,1,0
2,12810,1,0
2,13620,1,0
3,14390,1,0
3,15180,1,0
1,15980,1,0
2,16760,1,0
3,17550,1,0
4,18360,1,0
1,0,1,0
1,755,1,0
3,1590,1,0
3,2400,1,0
2,3200,1,0
2,3970,1,0
4,4825,1,0
4,5430,1,0
4,34400,1,0
2,19600,1,0
1,20410,1,0
3,21220,1,0
4,22010,1,0
1,22770,1,0
2,23570,1,0
4,24430,1,0
3,25240,1,0
1,25610,1,0
3,26430,1,0
2,27230,1,0
4,28030,1,0
1,28800,1,0
2,29610,1,0
4,30380,1,0
3,30800,1,0
2,31200,1,0
1,32020,1,0
4,32790,1,0
2,33620,1,0
3,34000,1,0
1,7980,1,0
1,35214,1,0
4,35995,1,0
2,36804,1,0
3,37184,1,0
4,37604,1,0
2,38384,1,0
3,39204,1,0
2,39984,1,0
3,40374,1,0
4,40774,1,0
1,41604,1,0
2,42404,1,0
3,43204,1,0
4,44004,1,0
3,44404,1,0
