1,780,1,0
1,2050,1,0
2,3320,1,0
3,4580,1,0
3,5220,1,0
4,5840,1,0
3,7110,1,0
2,8390,1,0
1,9650,1,0
1,10915,1,0
2,12180,1,0
3,13440,1,0
4,14700,1,0
4,15960,1,0
3,15310,1,0
3,17230,1,0
2,18480,1,0
1,19750,1,0
1,21040,1,0
2,21040,1,0
3,21040,1,0
4,21040,1,0
2,22280,1,0
3,23540,1,0
4,24800,1,0
3,25420,1,0
2,27330,1,0
1,26070,1,0
3,28590,1,0
4,29840,1,0
3,30480,1,0
4,31120,1,0
3,32380,1,0
2,33640,1,0
1,34910,1,0
2,35530,1,0
4,36160,1,0
3,37420,1,0
2,38700,1,0
1,39970,1,0
2,40600,1,0
4,41210,1,0
3,41700,1,0
2,42180,1,0
1,43290,1,0
2,43750,1,0
4,44850,1,0
1,46270,1,0
3,44370,1,0
2,46910,1,0
3,47540,1,0
4,48170,1,0
3,48810,1,0
2,50050,1,0
1,50700,1,0
4,51000,1,0
1,51330,1,0
2,51800,1,0
3,52270,1,0
4,53370,1,0
3,53860,1,0
1,54960,1,0
2,54480,1,0
1,56380,1,0
2,57020,1,0
3,57640,1,0
4,58290,1,0
3,58910,1,0
1,60190,1,0
2,60190,1,0
3,60190,1,0
4,60190,1,0
1,61440,1,0
3,61120,1,0
4,62050,1,0
3,62690,1,0
1,63320,1,0
2,63010,1,0
4,63950,1,0
3,63950,1,0
2,64600,1,0
1,64600,1,0
3,65220,1,0
1,65850,1,0
2,65535,1,0
1,66470,1,0
3,67750,1,0
4,67120,1,0
1,68370,1,0
2,68060,1,0
2,69000,1,0
1,69000,1,0
4,69640,1,0
3,69640,1,0
2,70280,1,0
4,70910,1,0
3,70595,1,0
4,71530,1,0
1,72150,1,0
2,72800,1,0
4,73420,1,0
3,73110,1,0
1,74060,1,0
2,74060,1,0
4,74690,1,0
3,74690,1,0
1,75330,1,0
3,75950,1,0
2,75640,1,0
4,76590,1,0
1,77220,1,0
3,78155,1,0
4,78470,1,0
2,77840,1,0
4,79110,1,0
3,79110,1,0
1,79740,1,0
2,79740,1,0
3,80390,1,0
1,81010,1,0
4,81640,1,0
2,80700,1,0
1,82895,1,0
3,83540,1,0
2,84170,1,0
4,85420,1,0
3,86070,1,0
1,87945,1,0
2,86680,1,0
2,88600,1,0
4,89220,1,0
1,90500,1,0
2,90500,1,0
3,90500,1,0
4,90500,1,0
1,91740,1,0
4,92370,1,0
1,93000,1,0
4,93630,1,0
1,94270,1,0
2,93950,1,0
4,94900,1,0
1,95530,1,0
4,96160,1,0
1,96800,1,0
4,97430,1,0
3,96480,1,0
1,98060,1,0
4,98690,1,0
1,99330,1,0
2,99010,1,0
4,99960,1,0
2,101200,1,0
2,100580,1,0
2,100890,1,0
3,101510,1,0
1,101850,1,0
2,101850,1,0
3,102480,1,0
4,102480,1,0
2,103110,1,0
1,103110,1,0
3,103740,1,0
4,103740,1,0
3,111560,1,0
1,104380,1,0
2,104060,1,0
3,105010,1,0
4,105010,1,0
2,105640,1,0
1,105640,1,0
3,106270,1,0
4,106270,1,0
4,111810,1,0
1,106910,1,0
3,106590,1,0
3,107540,1,0
4,107540,1,0
4,108800,1,0
2,108170,1,0
1,108170,1,0
3,108800,1,0
2,111310,1,0
1,109440,1,0
2,109120,1,0
4,110070,1,0
3,110070,1,0
2,110700,1,0
1,110700,1,0
3,113240,1,0
2,115100,1,0
3,115720,1,0
4,116390,1,0
4,114180,1,0
1,114480,1,0
3,117000,1,0
2,117630,1,0
1,118270,1,0
2,118880,1,0
1,119520,1,0
2,120150,1,0
3,120770,1,0
4,121420,1,0
3,122060,1,0
2,122700,1,0
1,123310,1,0
2,123960,1,0
4,124590,1,0
3,125220,1,0
2,125850,1,0
1,126480,1,0
2,127110,1,0
3,127730,1,0
4,128360,1,0
3,129000,1,0
4,129640,1,0
3,130265,1,0
2,130900,1,0
1,131530,1,0
2,132160,1,0
3,132790,1,0
4,133430,1,0
3,134050,1,0
2,134700,1,0
3,135320,1,0
1,135950,1,0
4,136590,1,0
2,137215,1,0
2,137845,1,0
1,139750,1,0
3,138640,1,0
3,139130,1,0
2,139750,1,0
1,141960,1,0
2,141960,1,0
2,176690,1,0
4,142260,1,0
1,142890,1,0
4,143520,1,0
2,144160,1,0
3,143840,1,0
1,144800,1,0
4,145430,1,0
1,146060,1,0
3,146700,1,0
2,146380,1,0
4,147310,1,0
1,147940,1,0
4,148570,1,0
2,149210,1,0
3,148890,1,0
1,149840,1,0
4,150470,1,0
1,151100,1,0
3,151740,1,0
2,151420,1,0
2,152380,1,0
3,153010,1,0
2,153640,1,0
2,154280,1,0
3,153960,1,0
4,154890,1,0
1,155520,1,0
4,156150,1,0
2,156790,1,0
3,156470,1,0
1,157430,1,0
4,158060,1,0
1,158690,1,0
3,159330,1,0
2,159010,1,0
1,160590,1,0
4,159960,1,0
3,161220,1,0
3,161860,1,0
2,161540,1,0
1,165320,1,0
1,162160,1,0
4,162470,1,0
1,163110,1,0
2,163110,1,0
4,163750,1,0
1,164390,1,0
2,164390,1,0
1,166910,1,0
3,165030,1,0
2,165635,1,0
3,165950,1,0
2,166585,1,0
3,166270,1,0
3,167210,1,0
1,167530,1,0
4,168160,1,0
1,168790,1,0
3,169430,1,0
2,169110,1,0
4,170060,1,0
1,170690,1,0
4,171320,1,0
2,171960,1,0
3,171640,1,0
3,172580,1,0
2,173210,1,0
3,173840,1,0
3,174480,1,0
2,174160,1,0
1,175110,1,0
2,175110,1,0
4,175740,1,0
3,175740,1,0
1,176370,1,0
3,177010,1,0
4,177010,1,0
4,177630,1,0
3,177630,1,0
1,178260,1,0
2,178260,1,0
4,178890,1,0
2,179530,1,0
1,179530,1,0
3,179210,1,0
4,180160,1,0
3,180160,1,0
2,180790,1,0
1,180790,1,0
4,181420,1,0
4,182060,1,0
4,181740,1,0
1,182680,1,0
1,183320,1,0
3,183960,1,0
1,183000,1,0
3,184600,1,0
3,184280,1,0
2,185210,1,0
3,185530,1,0
2,185850,1,0
3,186170,1,0
3,187110,1,0
4,187110,1,0
1,186630,1,0
2,186630,1,0
1,187750,1,0
2,187750,1,0
3,187750,1,0
4,187750,1,0
