%YAML 1.1
%TAG !u! tag:unity3d.com,2011:
--- !u!114 &11400000
MonoBehaviour:
  m_ObjectHideFlags: 0
  m_CorrespondingSourceObject: {fileID: 0}
  m_PrefabInstance: {fileID: 0}
  m_PrefabAsset: {fileID: 0}
  m_GameObject: {fileID: 0}
  m_Enabled: 1
  m_EditorHideFlags: 0
  m_Script: {fileID: 11500000, guid: f401dca382179494f920887dcd151c7e, type: 3}
  m_Name: "\u3044\u304F\u3089\u3068\u305F\u3089"
  m_EditorClassIdentifier: 
  musicTitle: "\u3044\u304F\u3089\u3068\u305F\u3089"
  musicClip: {fileID: 8300000, guid: 5f5d7d44d1b9c844c884da5190aa9be4, type: 3}
  jacket: {fileID: 21300000, guid: 85608daf959ebf04f9f516ca56d714fb, type: 3}
  noteData:
  - {fileID: 4900000, guid: a1633f3a8f630d34aa93803d7a33b9cc, type: 3}
  - {fileID: 4900000, guid: 40fedbf73b5811c438392a06d1f261a9, type: 3}
  - {fileID: 4900000, guid: 9de6fed128827ba478badc0344cf46bb, type: 3}
  artist: "\u86F8\u8DB3\u914D\u7DDA"
  illustrator: nekono
  noteDesignerName: nekono
  noteDifficulty:
  - 1
  - 3
  - 7+
  shortClip: {fileID: 8300000, guid: 8ee9d7bdfcf48a54582a77c3da6a3f4e, type: 3}
